Exploring Estimates of the Tuberculosis Case Fatality Ratio - with getTBinR - Sam Abbott
…
Now we use getTBinR to download the TB burden data and its accompanying data dictionary.

tb_burden <- get_tb_burden(verbose = FALSE)
dict <- get_data_dict(verbose = FALSE)

tb_burden

## # A tibble: 3,651 x 71
##    country  iso2  iso3  iso_numeric g_whoregion  year e_pop_num e_inc_100k
##    <chr>    <chr> <chr>       <int> <chr>       <int>     <int>      <dbl>
##  1 Afghani… AF    AFG             4 Eastern Me…  2000  20093756       190.
##  2 Afghani… AF    AFG             4 Eastern Me…  2001  20966463       189.
##  3 Afghani… AF    AFG             4 Eastern Me…  2002  21979923       189.
##  4 Afghani… AF    AFG             4 Eastern Me…  2003  23064851       189.
##  5 Afghani… AF    AFG             4 Eastern Me…  2004  24118979       189.
##  6 Afghani… AF    AFG             4 Eastern Me…  2005  25070798       189.
##  7 Afghani… AF    AFG             4 Eastern Me…  2006  25893450       189.
##  8 Afghani… AF    AFG             4 Eastern Me…  2007  26616792       189.
##  9 Afghani… AF    AFG             4 Eastern Me…  2008  27294031       189.
## 10 Afghani… AF    AFG             4 Eastern Me…  2009  28004331       189.
## # ... with 3,641 more rows, and 63 more variables: e_inc_100k_lo <dbl>,
## #   e_inc_100k_hi <dbl>, e_inc_num <int>, e_inc_num_lo <int>,
## #   e_inc_num_hi <int>, e_inc_num_f014 <int>, e_inc_num_f014_lo <int>,
## #   e_inc_num_f014_hi <int>, e_inc_num_f15plus <int>,
## #   e_inc_num_f15plus_lo <int>, e_inc_num_f15plus_hi <int>,
## #   e_inc_num_f <int>, e_inc_num_f_lo <int>, e_inc_num_f_hi <int>,
## #   e_inc_num_m014 <int>, e_inc_num_m014_lo <int>,
## #   e_inc_num_m014_hi <int>, e_inc_num_m15plus <int>,
## #   e_inc_num_m15plus_lo <int>, e_inc_num_m15plus_hi <int>,
…
dict

## # A tibble: 402 x 4
##    variable_name            dataset              code_list   definition   
##    <chr>                    <chr>                <chr>       <chr>        
##  1 bmu                      Community engagement ""          Number of TB…
##  2 bmu_community_impl       Community engagement ""          Number of TB…
##  3 bmu_ref_data             Community engagement ""          Number of Ba…
##  4 bmu_rxsupport_data       Community engagement ""          Number of Ba…
##  5 bmu_rxsupport_data_coh   Community engagement ""          Total number…
##  6 community_data_available Community engagement 0=No; 1=Yes Are data ava…
##  7 notified_ref             Community engagement ""          Total number…
##  8 notified_ref_community   Community engagement ""          Total number…
##  9 rxsupport_community_coh  Community engagement ""          Total number…
## 10 rxsupport_community_succ Community engagement ""          Total number…
## # ... with 392 more rows
…
We then estimate the regional case fatality ratio by taking the regional mortality rate and dividing it by the regional incidence rate for each year. We also do this for the high and low mortality rate estimates (using the lowest estimate for TB mortality and the highest estimate for incidence rates to get the lower bound, and vice versa for the high bound). This gives,

region_case_fatality <- tb_burden %>% 
  rate_region(metric = "e_inc_num") %>% 
  left_join(tb_burden %>% 
              rate_region(metric = "e_mort_num")) %>% 
  mutate(case_fat_rate = e_mort_num / e_inc_num,
         case_fat_rate_lo = e_mort_num_lo / e_inc_num_hi,
         case_fat_rate_hi = e_mort_num_hi / e_inc_num_lo)

## Joining, by = c("year", "g_whoregion", "e_pop_num")

region_case_fatality

## # A tibble: 102 x 12
##     year g_whoregion        e_inc_num e_inc_num_lo e_inc_num_hi  e_pop_num
##    <int> <chr>                  <dbl>        <dbl>        <dbl>      <dbl>
##  1  2000 Africa                 332.         210.         481.      6.59e8
##  2  2000 Americas                36.5         28.6         45.6     8.38e8
##  3  2000 Eastern Mediterra…     127.          87.0        175.      4.81e8
##  4  2000 Europe                  52.3         38.1         68.8     8.69e8
##  5  2000 South-East Asia        305.         175.         473.      1.57e9
##  6  2000 Western Pacific        131.          91.9        178.      1.70e9
##  7  2001 Africa                 337.         215.         487.      6.76e8
##  8  2001 Americas                35.0         27.4         43.6     8.48e8
##  9  2001 Eastern Mediterra…     126.          86.2        174.      4.92e8
## 10  2001 Europe                  51.9         37.7         68.3     8.70e8
## # ... with 92 more rows, and 6 more variables: e_mort_num <dbl>,
## #   e_mort_num_lo <dbl>, e_mort_num_hi <dbl>, case_fat_rate <dbl>,
## #   case_fat_rate_lo <dbl>, case_fat_rate_hi <dbl>
…
