Celebrating £1.4bn for the Global Fund - Trying out gganimate on Tuberculosis data from getTBinR - Sam Abbott
…
Data

getTbinR handles downloading and cleaning the TB surveillance data provided by the World Health Organization. See here for details.

## Pull TB data 
tb_burden <- get_tb_burden(verbose = FALSE) 

tb_burden

## # A tibble: 3,850 x 68
##    country iso2  iso3  iso_numeric g_whoregion  year e_pop_num e_inc_100k
##    <chr>   <chr> <chr>       <int> <chr>       <int>     <int>      <dbl>
##  1 Afghan… AF    AFG             4 Eastern Me…  2000  20093756        190
##  2 Afghan… AF    AFG             4 Eastern Me…  2001  20966463        189
##  3 Afghan… AF    AFG             4 Eastern Me…  2002  21979923        189
##  4 Afghan… AF    AFG             4 Eastern Me…  2003  23064851        189
##  5 Afghan… AF    AFG             4 Eastern Me…  2004  24118979        189
##  6 Afghan… AF    AFG             4 Eastern Me…  2005  25070798        189
##  7 Afghan… AF    AFG             4 Eastern Me…  2006  25893450        189
##  8 Afghan… AF    AFG             4 Eastern Me…  2007  26616792        189
##  9 Afghan… AF    AFG             4 Eastern Me…  2008  27294031        189
## 10 Afghan… AF    AFG             4 Eastern Me…  2009  28004331        189
## # … with 3,840 more rows, and 60 more variables: e_inc_100k_lo <dbl>,
## #   e_inc_100k_hi <dbl>, e_inc_num <int>, e_inc_num_lo <int>,
## #   e_inc_num_hi <int>, e_tbhiv_prct <dbl>, e_tbhiv_prct_lo <dbl>,
## #   e_tbhiv_prct_hi <dbl>, e_inc_tbhiv_100k <dbl>,
## #   e_inc_tbhiv_100k_lo <dbl>, e_inc_tbhiv_100k_hi <dbl>,
## #   e_inc_tbhiv_num <int>, e_inc_tbhiv_num_lo <int>,
## #   e_inc_tbhiv_num_hi <int>, e_mort_exc_tbhiv_100k <dbl>,
## #   e_mort_exc_tbhiv_100k_lo <dbl>, e_mort_exc_tbhiv_100k_hi <dbl>,
## #   e_mort_exc_tbhiv_num <int>, e_mort_exc_tbhiv_num_lo <int>,
…
## Pull the data dictionarty
tb_dict <- get_data_dict(verbose = FALSE)

tb_dict

## # A tibble: 470 x 4
##    variable_name  dataset code_list definition                             
##    <chr>          <chr>   <chr>     <chr>                                  
##  1 budget_cpp_ds… Budget  ""        Average cost of drugs budgeted per pat…
##  2 budget_cpp_mdr Budget  ""        Average cost of drugs budgeted per pat…
##  3 budget_cpp_xdr Budget  ""        Average cost of drugs budgeted per pat…
##  4 budget_fld     Budget  ""        Budget required for drugs to treat dru…
##  5 budget_lab     Budget  ""        Budget required for laboratory infrast…
##  6 budget_mdrmgt  Budget  ""        Budget required for programme costs to…
##  7 budget_orsrvy  Budget  ""        Budget required for operational resear…
##  8 budget_oth     Budget  ""        Budget required for all other budget l…
##  9 budget_patsup  Budget  ""        Budget required for patient support (U…
## 10 budget_prog    Budget  ""        Budget required for programme costs to…
## # … with 460 more rows
…
