…
The first step is to load the packages required for the analysis, we do this using the fantastic pacman package.

if (!require(pacman)) install.packages("pacman"); library(pacman)
p_load("tidyverse")
p_load("purrr")
p_load_gh("thomasp85/patchwork", dependencies = TRUE)

Data

tb_monitoring_indicators <- readRDS("../../static/data/fingertips/tb-pam-clusters.rds")

tb_monitoring_indicators

## # A tibble: 59 x 11
##    AreaName     rec_inc_rate prop_pul_cc prop_cc_ds_front prop_ds_treat_c…
##    <fct>               <dbl>       <dbl>            <dbl>            <dbl>
##  1 Blackburn w…         29.0        71.4            100.              87.5
##  2 Derby                14.0        72.7            100.              71.9
##  3 Leicester            41.8        81.2             97.6             78.4
##  4 Nottingham           17.1        82.1             97.1             80.4
##  5 Stoke-on-Tr…         12.1        66.7            100.              80.8
##  6 Bristol              20.6        53.1             95.1             79.0
##  7 Swindon              10.7        57.1            100.              75.0
##  8 Peterborough         23.2        66.7            100.              69.0
##  9 Luton                30.1        80.0            100.              82.4
## 10 Reading              34.7        64.3             95.0             97.0
## # ... with 49 more rows, and 6 more variables:
## #   prop_ds_lost_to_follow <dbl>, prop_ds_died <dbl>,
## #   prop_tb_offered_hiv_test <dbl>, prop_p_start_treat_2_m_sym <dbl>,
## #   prop_p_start_treat_4_m_sym <dbl>, cluster <ord>
…
