…
com_tb_df <- tb_inc %>% 
  left_join(extracted_tb) %>% 
  mutate(year = Timeperiod %>% as.numeric) %>% 
  mutate_if(is.character, as.factor) %>% 
  select(-Timeperiod) %>% 
  filter(Sex %in% "Persons", Age %in% "All ages") %>% 
  select(-Sex, -Age)

## Joining, by = c("AreaName", "Sex", "Age", "Timeperiod")

com_tb_df

## # A tibble: 2,026 x 13
##    AreaName     rec_inc_rate prop_pul_cc prop_cc_ds_front prop_ds_treat_c…
##    <fct>               <dbl>       <dbl>            <dbl>            <dbl>
##  1 Hartlepool          10.0         NA                NA            NA    
##  2 Middlesbrou…        16.1         72.7             100.           82.6  
##  3 Stockton-on…         5.99        NA                NA            NA    
##  4 Blackburn w…        37.7         61.8             100.           80.7  
##  5 Blackpool            7.95        NA                NA            NA    
##  6 Kingston up…         5.06        NA                NA            NA    
##  7 East Riding…         3.28        NA                NA            NA    
##  8 Derby               19.3         66.7             100.           76.7  
##  9 Leicester           71.1         62.6             100.            0.546
## 10 Nottingham          16.9         80.0             100.           73.0  
## # ... with 2,016 more rows, and 8 more variables:
## #   prop_ds_lost_to_follow <dbl>, prop_ds_died <dbl>,
## #   prop_tb_offered_hiv_test <dbl>, prop_ds_rf_treat_com_12 <dbl>,
## #   prop_cc_dr_front <dbl>, prop_p_start_treat_2_m_sym <dbl>,
## #   prop_p_start_treat_4_m_sym <dbl>, year <dbl>
…
20
0.0000000

The choice of incidence rate cut-off is somewhat arbitary. However, it appears that a cut-off of at least 10 (per 100,000) is sufficient to deal with the majority of missing data. This is also a sensible cut-off as it represents the World Health Organisation’s 2035 target for TB eradication. This means that our analysis will focus on counties that have relatively high incidence rates in comparision to the median in England. Using everything we have learnt about about the qaulity of the data we now identify the near final analysis dataset.

tb_df_2015 <- com_tb_df %>% 
  select(-map_dbl(com_miss_vars, contains)) %>% 
  filter(year == 2015) %>% 
  filter(rec_inc_rate > 10)

tb_df_2015 

## # A tibble: 62 x 11
##    AreaName     rec_inc_rate prop_pul_cc prop_cc_ds_front prop_ds_treat_c…
##    <fct>               <dbl>       <dbl>            <dbl>            <dbl>
##  1 Blackburn w…         29.0        71.4            100.              87.5
##  2 Derby                14.0        72.7            100.              71.9
##  3 Leicester            41.8        81.2             97.6             78.4
##  4 Nottingham           17.1        82.1             97.1             80.4
##  5 Stoke-on-Tr…         12.1        66.7            100.              80.8
##  6 Bristol              20.6        53.1             95.1             79.0
##  7 Swindon              10.7        57.1            100.              75.0
##  8 Peterborough         23.2        66.7            100.              69.0
##  9 Luton                30.1        80.0            100.              82.4
## 10 Reading              34.7        64.3             95.0             97.0
## # ... with 52 more rows, and 6 more variables:
## #   prop_ds_lost_to_follow <dbl>, prop_ds_died <dbl>,
## #   prop_tb_offered_hiv_test <dbl>, prop_p_start_treat_2_m_sym <dbl>,
## #   prop_p_start_treat_4_m_sym <dbl>, year <dbl>
…
