…
  x <- replace(x, runif(length(x), 0, 1) <= miss_scale, NA)
}

complex_credit_data <- credit_data %>% 
  bind_cols(noise_var) %>% 
  mutate_at(.vars = vars(everything(), - Status), ~ add_miss(., 0.2)) %>% 
  mutate(
    Home = case_when(Home %in% "other" ~ as.character(CatNoise_30),
                          TRUE ~ as.character(Home)) %>% 
           factor)

complex_credit_data

## # A tibble: 4,454 x 113
##    Status Seniority Home   Time   Age Marital Records Job   Expenses Income
##    <fct>      <int> <fct> <int> <int> <fct>   <fct>   <fct>    <int>  <int>
##  1 good          NA <NA>     60    30 married <NA>    free…       73    129
##  2 good          17 rent     60    58 widow   no      <NA>        48    131
##  3 bad           NA owner    36    46 married yes     free…       90    200
##  4 good           0 rent     60    24 single  <NA>    fixed       63    182
##  5 good           0 rent     36    26 single  no      fixed       46    107
##  6 good           1 owner    NA    36 married no      fixed       75    214
##  7 good          NA <NA>     60    44 <NA>    no      fixed       75    125
##  8 good           9 pare…    12    27 <NA>    <NA>    fixed       35     80
##  9 good           0 owner    60    32 <NA>    no      free…       90    107
## 10 bad            0 pare…    48    41 married no      part…       90     80
## # ... with 4,444 more rows, and 103 more variables: Assets <int>,
## #   Debt <int>, Amount <int>, Price <int>, Seniority1 <int>, Home1 <fct>,
## #   Time1 <int>, Age1 <int>, Marital1 <fct>, Records1 <fct>, Job1 <fct>,
## #   Expenses1 <int>, Income1 <int>, Assets1 <int>, Debt1 <int>,
## #   Amount1 <int>, Price1 <int>, Seniority2 <int>, Home2 <fct>,
## #   Time2 <int>, Age2 <int>, Marital2 <fct>, Records2 <fct>, Job2 <fct>,
## #   Expenses2 <int>, Income2 <int>, Assets2 <int>, Debt2 <int>,
## #   Amount2 <int>, Price2 <int>, Seniority11 <int>, Home11 <fct>,
## #   Time11 <int>, Age11 <int>, Marital11 <fct>, Records11 <fct>,
…
benchmark_input <- expand.grid(
  cores = c(4, 16, 32),
  rowsample = c(1e3, 1e4, 2.5e4, 5e4, 7.5e4, 1e5),
  colsample = c(10, 100, 1000),
  trees = c(10, 100, 1000, 10000),
  gpu = c(FALSE),
  rep = 1
) %>% 
  as_tibble() %>% 
  mutate(size = rowsample * colsample * trees) %>% 
  arrange(desc(size), cores)

benchmark_input

## # A tibble: 216 x 7
##    cores rowsample colsample trees gpu     rep          size
##    <dbl>     <dbl>     <dbl> <dbl> <lgl> <dbl>         <dbl>
##  1     4    100000      1000 10000 FALSE     1 1000000000000
##  2    16    100000      1000 10000 FALSE     1 1000000000000
##  3    32    100000      1000 10000 FALSE     1 1000000000000
##  4     4     75000      1000 10000 FALSE     1  750000000000
##  5    16     75000      1000 10000 FALSE     1  750000000000
##  6    32     75000      1000 10000 FALSE     1  750000000000
##  7     4     50000      1000 10000 FALSE     1  500000000000
##  8    16     50000      1000 10000 FALSE     1  500000000000
##  9    32     50000      1000 10000 FALSE     1  500000000000
## 10     4     25000      1000 10000 FALSE     1  250000000000
## # ... with 206 more rows
…
  saveRDS(benchmark_output, "../../static/data/workstation-benchmark/xgboost.rds")
}else{
  benchmark_output <- readRDS( "../../static/data/workstation-benchmark/xgboost.rds")
}

benchmark_output

## # A tibble: 216 x 11
##    cores rowsample colsample trees gpu     rep    size    tic    toc fit  
##    <dbl>     <dbl>     <dbl> <dbl> <lgl> <dbl>   <dbl>  <dbl>  <dbl> <lgl>
##  1     4    100000      1000 10000 FALSE     1 1.00e12   332.  5515. TRUE 
##  2    16    100000      1000 10000 FALSE     1 1.00e12  5582.  7141. TRUE 
##  3    32    100000      1000 10000 FALSE     1 1.00e12  7213.  8844. TRUE 
##  4     4     75000      1000 10000 FALSE     1 7.50e11  8899. 11925. TRUE 
##  5    16     75000      1000 10000 FALSE     1 7.50e11 11978. 13291. TRUE 
##  6    32     75000      1000 10000 FALSE     1 7.50e11 13349. 14974. TRUE 
##  7     4     50000      1000 10000 FALSE     1 5.00e11 15013. 18061. TRUE 
##  8    16     50000      1000 10000 FALSE     1 5.00e11 18099. 19046. TRUE 
##  9    32     50000      1000 10000 FALSE     1 5.00e11 19090. 20008. TRUE 
## 10     4     25000      1000 10000 FALSE     1 2.50e11 20032. 21311. TRUE 
## # ... with 206 more rows, and 1 more variable: duration <dbl>
…
